…
```r
activity = na.omit(activity)
activity$date = as.Date(activity$date)

activity$day = format(activity$date , "%d")


activity %>% group_by(day) %>% summarize(sum(steps))
```

```
## # A tibble: 30 x 2
##    day   `sum(steps)`
##    <chr>        <int>
##  1 02           10726
##  2 03           21923
##  3 04           12116
##  4 05           23733
##  5 06           23754
##  6 07           23898
##  7 08            3219
##  8 09           12811
##  9 10            9900
## 10 11           22912
## # ... with 20 more rows
```

```r
activity %>% group_by(day) %>% summarize(mean(steps))
```

```
## # A tibble: 30 x 2
##    day   `mean(steps)`
##    <chr>         <dbl>
##  1 02             18.6
##  2 03             38.1
##  3 04             42.1
##  4 05             41.2
##  5 06             41.2
##  6 07             41.5
##  7 08             11.2
##  8 09             44.5
##  9 10             34.4
## 10 11             39.8
## # ... with 20 more rows
```

```r
activity %>% group_by(day) %>% summarize(median(steps))
```

```
## # A tibble: 30 x 2
##    day   `median(steps)`
##    <chr>           <dbl>
##  1 02                  0
##  2 03                  0
##  3 04                  0
##  4 05                  0
##  5 06                  0
##  6 07                  0
##  7 08                  0
##  8 09                  0
##  9 10                  0
## 10 11                  0
## # ... with 20 more rows
```
…
##Make a histogram of the total number of steps taken each day and Calculate and report the mean and median total number of steps taken per day. Do these values differ from the estimates from the first part of the assignment? What is the impact of imputing missing data on the estimates of the total daily number of steps?


```r
activity$date = as.Date(activity$date)

activity$day = format(activity$date , "%d")


activity %>% group_by(day) %>% summarize(sum(steps))
```

```
## # A tibble: 31 x 2
##    day   `sum(steps)`
##    <chr>        <dbl>
##  1 01          21532.
##  2 02          10726 
##  3 03          21923 
##  4 04          22882.
##  5 05          23733 
##  6 06          23754 
##  7 07          23898 
##  8 08          13985.
##  9 09          23577.
## 10 10          20666.
## # ... with 21 more rows
```

```r
activity %>% group_by(day) %>% summarize(mean(steps))
```

```
## # A tibble: 31 x 2
##    day   `mean(steps)`
##    <chr>         <dbl>
##  1 01             37.4
##  2 02             18.6
##  3 03             38.1
##  4 04             39.7
##  5 05             41.2
##  6 06             41.2
##  7 07             41.5
##  8 08             24.3
##  9 09             40.9
## 10 10             35.9
## # ... with 21 more rows
```

```r
activity %>% group_by(day) %>% summarize(median(steps))
```

```
## # A tibble: 31 x 2
##    day   `median(steps)`
##    <chr>           <dbl>
##  1 01               37.4
##  2 02                0  
##  3 03                0  
##  4 04               37.4
##  5 05                0  
##  6 06                0  
##  7 07                0  
##  8 08               37.4
##  9 09               37.4
## 10 10               37.4
## # ... with 21 more rows
```
…
